\relax 
\providecommand\hyper@newdestlabel[2]{}
\@writefile{nav}{\headcommand {\slideentry {0}{0}{2}{2/4}{}{0}}}
\@writefile{nav}{\headcommand {\beamer@framepages {2}{4}}}
\@writefile{nav}{\headcommand {\slideentry {0}{0}{3}{5/8}{}{0}}}
\@writefile{nav}{\headcommand {\beamer@framepages {5}{8}}}
\@writefile{nav}{\headcommand {\slideentry {0}{0}{4}{9/15}{}{0}}}
\@writefile{nav}{\headcommand {\beamer@framepages {9}{15}}}
\@writefile{nav}{\headcommand {\slideentry {0}{0}{5}{16/18}{}{0}}}
\@writefile{nav}{\headcommand {\beamer@framepages {16}{18}}}
\@writefile{nav}{\headcommand {\slideentry {0}{0}{6}{19/22}{}{0}}}
\@writefile{nav}{\headcommand {\beamer@framepages {19}{22}}}
\@writefile{nav}{\headcommand {\slideentry {0}{0}{7}{23/29}{}{0}}}
\@writefile{nav}{\headcommand {\beamer@framepages {23}{29}}}
\@writefile{nav}{\headcommand {\slideentry {0}{0}{8}{30/33}{}{0}}}
\@writefile{nav}{\headcommand {\beamer@framepages {30}{33}}}
\@writefile{nav}{\headcommand {\slideentry {0}{0}{9}{34/37}{}{0}}}
\@writefile{nav}{\headcommand {\beamer@framepages {34}{37}}}
\@writefile{nav}{\headcommand {\slideentry {0}{0}{10}{38/40}{}{0}}}
\@writefile{nav}{\headcommand {\beamer@framepages {38}{40}}}
\@writefile{nav}{\headcommand {\slideentry {0}{0}{11}{41/47}{}{0}}}
\@writefile{nav}{\headcommand {\beamer@framepages {41}{47}}}
\@writefile{nav}{\headcommand {\slideentry {0}{0}{12}{48/51}{}{0}}}
\@writefile{nav}{\headcommand {\beamer@framepages {48}{51}}}
\@setckpt{schowek}{
\setcounter{page}{52}
\setcounter{equation}{0}
\setcounter{enumi}{0}
\setcounter{enumii}{0}
\setcounter{enumiii}{0}
\setcounter{enumiv}{0}
\setcounter{footnote}{0}
\setcounter{mpfootnote}{0}
\setcounter{beamerpauses}{4}
\setcounter{bookmark@seq@number}{0}
\setcounter{lecture}{0}
\setcounter{part}{0}
\setcounter{section}{0}
\setcounter{subsection}{0}
\setcounter{subsubsection}{0}
\setcounter{subsectionslide}{12}
\setcounter{framenumber}{12}
\setcounter{figure}{0}
\setcounter{table}{0}
\setcounter{parentequation}{0}
\setcounter{theorem}{3}
\setcounter{section@level}{0}
}
